
     [
      {
        "name": "Beans",
        "price": "4.50",
        "image": "/images/beans.webp",
        "article": "456132",
        "color": "green"
      },
      {
        "name": "Asparagus Purple",
        "price": "3.49",
        "image": "/images/PurpleAsparagus.webp",
        "article": "561234",
        "color": "Purple"
      },
      {
        "name": "Beetroot ",
        "price": "7.69",
        "image": "/images/Beetroot.webp",
        "article": "612345",
        "color": "red"
      },
      {
        "name": "Broccoli Organic",
        "price": "4.45",
        "image": "/images/BroccoliOrganic.webp",
        "article": "456123",
        "color": "green"
      },
      {
        "name": "Cabbage ",
        "price": "9.99",
        "image": "/images/Cabbage.webp",
        "article": "345612",
        "color": "green"
      },
      {
        "name": "Capsicum",
        "price": "2.80",
        "image": "/images/Capsicum.webp",
        "article": "234561",
        "color": "green"
      },
      {
        "name": "Capsicum Red",
        "price": "3.86",
        "image": "/images/CapsicumRed.webp",
        "article": "234516",
        "color": "red"
      },
      {
        "name": "Carrot and Celery Pre-Cut 350g",
        "price": "6.99",
        "image": "/images/CarrotandCeleryPre-Cut350g.webp",
        "article": "341256",
        "color": "orange/green"
      },
      {
        "name": "Carrot ",
        "price": "7.69",
        "image": "/images/Carrot.webp",
        "article": "312456",
        "color": "orange"
      },
      {
        "name": "Corn",
        "price": "1.29",
        "image": "/images/Corn.webp",
        "article": "412356",
        "color": "yellow/green"
      }
    ]

    